<?xml version="1.0" encoding="UTF-8" standalone="no"?>
<!-- Created with Inkscape (http://www.inkscape.org/) -->

<svg
   xmlns:osb="http://www.openswatchbook.org/uri/2009/osb"
   xmlns:dc="http://purl.org/dc/elements/1.1/"
   xmlns:cc="http://creativecommons.org/ns#"
   xmlns:rdf="http://www.w3.org/1999/02/22-rdf-syntax-ns#"
   xmlns:svg="http://www.w3.org/2000/svg"
   xmlns="http://www.w3.org/2000/svg"
   xmlns:sodipodi="http://sodipodi.sourceforge.net/DTD/sodipodi-0.dtd"
   xmlns:inkscape="http://www.inkscape.org/namespaces/inkscape"
   width="960"
   height="720"
   viewBox="0 0 960.00001 720.00001"
   id="svg2"
   version="1.1"
   inkscape:version="0.91 r13725"
   sodipodi:docname="hashFunction.svg"
   inkscape:export-filename="/home/user/Projects/blockchainj/paper/images/hashfunction.png"
   inkscape:export-xdpi="90"
   inkscape:export-ydpi="90">
  <defs
     id="defs4">
    <marker
       inkscape:isstock="true"
       style="overflow:visible;"
       id="marker5453"
       refX="0.0"
       refY="0.0"
       orient="auto"
       inkscape:stockid="Arrow1Lend">
      <path
         transform="scale(0.8) rotate(180) translate(12.5,0)"
         style="fill-rule:evenodd;stroke:#000000;stroke-width:1pt;stroke-opacity:1;fill:#000000;fill-opacity:1"
         d="M 0.0,0.0 L 5.0,-5.0 L -12.5,0.0 L 5.0,5.0 L 0.0,0.0 z "
         id="path5455" />
    </marker>
    <marker
       inkscape:stockid="Arrow1Lend"
       orient="auto"
       refY="0.0"
       refX="0.0"
       id="marker5411"
       style="overflow:visible;"
       inkscape:isstock="true"
       inkscape:collect="always">
      <path
         id="path5413"
         d="M 0.0,0.0 L 5.0,-5.0 L -12.5,0.0 L 5.0,5.0 L 0.0,0.0 z "
         style="fill-rule:evenodd;stroke:#000000;stroke-width:1pt;stroke-opacity:1;fill:#000000;fill-opacity:1"
         transform="scale(0.8) rotate(180) translate(12.5,0)" />
    </marker>
    <marker
       inkscape:isstock="true"
       style="overflow:visible;"
       id="marker5355"
       refX="0.0"
       refY="0.0"
       orient="auto"
       inkscape:stockid="Arrow1Lend"
       inkscape:collect="always">
      <path
         transform="scale(0.8) rotate(180) translate(12.5,0)"
         style="fill-rule:evenodd;stroke:#000000;stroke-width:1pt;stroke-opacity:1;fill:#000000;fill-opacity:1"
         d="M 0.0,0.0 L 5.0,-5.0 L -12.5,0.0 L 5.0,5.0 L 0.0,0.0 z "
         id="path5357" />
    </marker>
    <marker
       inkscape:stockid="Arrow1Lend"
       orient="auto"
       refY="0.0"
       refX="0.0"
       id="Arrow1Lend"
       style="overflow:visible;"
       inkscape:isstock="true"
       inkscape:collect="always">
      <path
         id="path5074"
         d="M 0.0,0.0 L 5.0,-5.0 L -12.5,0.0 L 5.0,5.0 L 0.0,0.0 z "
         style="fill-rule:evenodd;stroke:#000000;stroke-width:1pt;stroke-opacity:1;fill:#000000;fill-opacity:1"
         transform="scale(0.8) rotate(180) translate(12.5,0)" />
    </marker>
    <linearGradient
       id="linearGradient4686"
       osb:paint="gradient">
      <stop
         style="stop-color:#000000;stop-opacity:1;"
         offset="0"
         id="stop4688" />
      <stop
         style="stop-color:#000000;stop-opacity:0;"
         offset="1"
         id="stop4690" />
    </linearGradient>
  </defs>
  <sodipodi:namedview
     id="base"
     pagecolor="#ffffff"
     bordercolor="#666666"
     borderopacity="1.0"
     inkscape:pageopacity="0.0"
     inkscape:pageshadow="2"
     inkscape:zoom="0.7"
     inkscape:cx="872.64194"
     inkscape:cy="518.13146"
     inkscape:document-units="px"
     inkscape:current-layer="layer1"
     showgrid="false"
     units="px"
     inkscape:showpageshadow="true"
     showborder="true"
     inkscape:window-width="1366"
     inkscape:window-height="701"
     inkscape:window-x="0"
     inkscape:window-y="24"
     inkscape:window-maximized="1" />
  <metadata
     id="metadata7">
    <rdf:RDF>
      <cc:Work
         rdf:about="">
        <dc:format>image/svg+xml</dc:format>
        <dc:type
           rdf:resource="http://purl.org/dc/dcmitype/StillImage" />
        <dc:title />
      </cc:Work>
    </rdf:RDF>
  </metadata>
  <g
     inkscape:label="Layer 1"
     inkscape:groupmode="layer"
     id="layer1"
     transform="translate(0,-332.36216)">
    <rect
       style="fill:none;fill-opacity:1;stroke:#000000;stroke-width:1.46525657;stroke-miterlimit:4;stroke-dasharray:none;stroke-dashoffset:0;stroke-opacity:1"
       id="rect4694"
       width="91.563316"
       height="514.42047"
       x="788.50403"
       y="489.43762" />
    <rect
       style="fill:#000000;fill-opacity:0.85;stroke:#000000;stroke-width:1.62958634;stroke-linejoin:miter;stroke-miterlimit:4;stroke-dasharray:none;stroke-dashoffset:0;stroke-opacity:1"
       id="rect5523"
       width="89.313416"
       height="59.870426"
       x="790.06543"
       y="544.14185" />
    <flowRoot
       xml:space="preserve"
       id="flowRoot4905-0"
       style="font-style:normal;font-weight:normal;font-size:35px;line-height:125%;font-family:sans-serif;letter-spacing:0px;word-spacing:0px;fill:#ffffff;fill-opacity:1;stroke:none;stroke-width:1px;stroke-linecap:butt;stroke-linejoin:miter;stroke-opacity:1;"
       transform="translate(19.44622,390.78868)"><flowRegion
         id="flowRegion4907-6"><rect
           id="rect4909-2"
           width="75.714287"
           height="50"
           x="800"
           y="161.42857"
           style="fill:#ffffff;" /></flowRegion><flowPara
         id="flowPara4911-6">1</flowPara></flowRoot>    <rect
       style="fill:#000000;fill-opacity:0.22;stroke:#000000;stroke-width:1.49619937;stroke-miterlimit:4;stroke-dasharray:none;stroke-dashoffset:0;stroke-opacity:1"
       id="rect4684"
       width="307.24664"
       height="507.24664"
       x="367.09094"
       y="495.16739" />
    <rect
       style="fill:none;fill-opacity:1;stroke:#000000;stroke-width:1.60000002;stroke-miterlimit:4;stroke-dasharray:none;stroke-dashoffset:0;stroke-opacity:1"
       id="rect4696"
       width="265.71429"
       height="64.285713"
       x="30"
       y="496.36215" />
    <rect
       style="fill:none;fill-opacity:1;stroke:#000000;stroke-width:1.60000002;stroke-miterlimit:4;stroke-dasharray:none;stroke-dashoffset:0;stroke-opacity:1"
       id="rect4696-3"
       width="265.71429"
       height="64.285713"
       x="30.571423"
       y="608.505" />
    <rect
       style="fill:none;fill-opacity:1;stroke:#000000;stroke-width:1.60000002;stroke-miterlimit:4;stroke-dasharray:none;stroke-dashoffset:0;stroke-opacity:1"
       id="rect4696-6"
       width="265.71429"
       height="64.285713"
       x="30.571423"
       y="722.505" />
    <rect
       style="fill:none;fill-opacity:1;stroke:#000000;stroke-width:1.60000002;stroke-miterlimit:4;stroke-dasharray:none;stroke-dashoffset:0;stroke-opacity:1"
       id="rect4696-6-7"
       width="265.71429"
       height="64.285713"
       x="30.571423"
       y="829.36218" />
    <rect
       style="fill:none;fill-opacity:1;stroke:#000000;stroke-width:1.60000002;stroke-miterlimit:4;stroke-dasharray:none;stroke-dashoffset:0;stroke-opacity:1"
       id="rect4696-6-5"
       width="265.71429"
       height="64.285713"
       x="30.571423"
       y="936.79077" />
    <flowRoot
       xml:space="preserve"
       id="flowRoot4759"
       style="font-style:normal;font-weight:normal;font-size:50px;line-height:125%;font-family:sans-serif;letter-spacing:0px;word-spacing:0px;fill:#000000;fill-opacity:1;stroke:none;stroke-width:1px;stroke-linecap:butt;stroke-linejoin:miter;stroke-opacity:1"
       transform="translate(0,332.36216)"><flowRegion
         id="flowRegion4761"><rect
           id="rect4763"
           width="215.71428"
           height="50"
           x="57.142857"
           y="65.714287" /></flowRegion><flowPara
         id="flowPara4765">Keys</flowPara></flowRoot>    <text
       xml:space="preserve"
       style="font-style:normal;font-weight:normal;font-size:50px;line-height:125%;font-family:sans-serif;letter-spacing:0px;word-spacing:0px;fill:#000000;fill-opacity:1;stroke:none;stroke-width:1px;stroke-linecap:butt;stroke-linejoin:miter;stroke-opacity:1"
       x="103.42857"
       y="431.2193"
       id="text4767"
       sodipodi:linespacing="125%"><tspan
         sodipodi:role="line"
         id="tspan4769"
         x="103.42857"
         y="431.2193">Keys</tspan></text>
    <flowRoot
       xml:space="preserve"
       id="flowRoot4779"
       style="font-style:normal;font-weight:normal;font-size:50px;line-height:125%;font-family:sans-serif;letter-spacing:0px;word-spacing:0px;fill:#000000;fill-opacity:1;stroke:none;stroke-width:1px;stroke-linecap:butt;stroke-linejoin:miter;stroke-opacity:1"
       transform="translate(52,320.36216)"><flowRegion
         id="flowRegion4781"><rect
           id="rect4783"
           width="248.57137"
           height="142.85715"
           x="354.28571"
           y="24.285713" /></flowRegion><flowPara
         id="flowPara4785">   Hash </flowPara><flowPara
         id="flowPara4789">Function</flowPara></flowRoot>    <flowRoot
       xml:space="preserve"
       id="flowRoot4791"
       style="font-style:normal;font-weight:normal;font-size:50px;line-height:125%;font-family:sans-serif;letter-spacing:0px;word-spacing:0px;fill:#000000;fill-opacity:1;stroke:none;stroke-width:1px;stroke-linecap:butt;stroke-linejoin:miter;stroke-opacity:1"
       transform="translate(-6,356.36216)"><flowRegion
         id="flowRegion4793"><rect
           id="rect4795"
           width="211.42856"
           height="70"
           x="745.71429"
           y="22.857143" /></flowRegion><flowPara
         id="flowPara4797">Hashes</flowPara></flowRoot>    <flowRoot
       xml:space="preserve"
       id="flowRoot4799"
       style="fill:black;stroke:none;stroke-opacity:1;stroke-width:1px;stroke-linejoin:miter;stroke-linecap:butt;fill-opacity:1;font-family:sans-serif;font-style:normal;font-weight:normal;font-size:35px;line-height:125%;letter-spacing:0px;word-spacing:0px;"><flowRegion
         id="flowRegion4801"><rect
           id="rect4803"
           width="238.57143"
           height="52.857143"
           x="45.714287"
           y="172.85715"
           style="font-size:35px;" /></flowRegion><flowPara
         id="flowPara4805" /></flowRoot>    <text
       xml:space="preserve"
       style="font-style:normal;font-weight:normal;font-size:50px;line-height:125%;font-family:sans-serif;letter-spacing:0px;word-spacing:0px;fill:#000000;fill-opacity:1;stroke:none;stroke-width:1px;stroke-linecap:butt;stroke-linejoin:miter;stroke-opacity:1"
       x="60"
       y="525.2193"
       id="text4807"
       sodipodi:linespacing="125%"><tspan
         sodipodi:role="line"
         id="tspan4809"
         x="60"
         y="525.2193" /></text>
    <flowRoot
       xml:space="preserve"
       id="flowRoot4811"
       style="font-style:normal;font-weight:normal;font-size:35px;line-height:125%;font-family:sans-serif;letter-spacing:0px;word-spacing:0px;fill:#000000;fill-opacity:1;stroke:none;stroke-width:1px;stroke-linecap:butt;stroke-linejoin:miter;stroke-opacity:1"
       transform="translate(44,340.36216)"><flowRegion
         id="flowRegion4813"><rect
           id="rect4815"
           width="261.42856"
           height="55.714287"
           x="35.714287"
           y="164.28572" /></flowRegion><flowPara
         id="flowPara4817">key_one</flowPara></flowRoot>    <flowRoot
       xml:space="preserve"
       id="flowRoot4811-3"
       style="font-style:normal;font-weight:normal;font-size:35px;line-height:125%;font-family:sans-serif;letter-spacing:0px;word-spacing:0px;fill:#000000;fill-opacity:1;stroke:none;stroke-width:1px;stroke-linecap:butt;stroke-linejoin:miter;stroke-opacity:1"
       transform="translate(16.787633,452.07377)"><flowRegion
         id="flowRegion4813-5"><rect
           id="rect4815-6"
           width="261.42856"
           height="55.714287"
           x="35.714287"
           y="164.28572" /></flowRegion><flowPara
         id="flowPara4817-2">another_key</flowPara></flowRoot>    <flowRoot
       xml:space="preserve"
       id="flowRoot4811-3-9"
       style="font-style:normal;font-weight:normal;font-size:35px;line-height:125%;font-family:sans-serif;letter-spacing:0px;word-spacing:0px;fill:#000000;fill-opacity:1;stroke:none;stroke-width:1px;stroke-linecap:butt;stroke-linejoin:miter;stroke-opacity:1"
       transform="translate(60.26442,564.22877)"><flowRegion
         id="flowRegion4813-5-1"><rect
           id="rect4815-6-2"
           width="261.42856"
           height="55.714287"
           x="35.714287"
           y="164.28572" /></flowRegion><flowPara
         id="flowPara4817-2-7">a_word</flowPara></flowRoot>    <flowRoot
       xml:space="preserve"
       id="flowRoot4867"
       style="font-style:normal;font-weight:normal;font-size:35px;line-height:125%;font-family:sans-serif;letter-spacing:0px;word-spacing:0px;fill:#000000;fill-opacity:1;stroke:none;stroke-width:1px;stroke-linecap:butt;stroke-linejoin:miter;stroke-opacity:1"
       transform="translate(0,332.36216)"><flowRegion
         id="flowRegion4869"><rect
           id="rect4871"
           width="245.71428"
           height="38.57143"
           x="44.285713"
           y="502.85715" /></flowRegion><flowPara
         id="flowPara4873">aaaa</flowPara></flowRoot>    <text
       xml:space="preserve"
       style="font-style:normal;font-weight:normal;font-size:35px;line-height:125%;font-family:sans-serif;letter-spacing:0px;word-spacing:0px;fill:#000000;fill-opacity:1;stroke:none;stroke-width:1px;stroke-linecap:butt;stroke-linejoin:miter;stroke-opacity:1"
       x="94"
       y="870.36218"
       id="text4875"
       sodipodi:linespacing="125%"><tspan
         sodipodi:role="line"
         id="tspan4877"
         x="94"
         y="870.36218">a_hash</tspan></text>
    <flowRoot
       xml:space="preserve"
       id="flowRoot4811-3-0"
       style="font-style:normal;font-weight:normal;font-size:35px;line-height:125%;font-family:sans-serif;letter-spacing:0px;word-spacing:0px;fill:#000000;fill-opacity:1;stroke:none;stroke-width:1px;stroke-linecap:butt;stroke-linejoin:miter;stroke-opacity:1"
       transform="translate(67.564388,779.50234)"><flowRegion
         id="flowRegion4813-5-9"><rect
           id="rect4815-6-3"
           width="261.42856"
           height="55.714287"
           x="35.714287"
           y="164.28572" /></flowRegion><flowPara
         id="flowPara4817-2-6">cookie</flowPara></flowRoot>    <path
       style="fill:none;fill-rule:evenodd;stroke:#000000;stroke-width:1px;stroke-linecap:butt;stroke-linejoin:miter;stroke-opacity:1"
       d="m 789.14286,730.93359 91.42857,0"
       id="path4891"
       inkscape:connector-curvature="0" />
    <path
       style="fill:none;fill-rule:evenodd;stroke:#000000;stroke-width:1px;stroke-linecap:butt;stroke-linejoin:miter;stroke-opacity:1"
       d="m 789.14286,605.2193 91.42857,0"
       id="path4893"
       inkscape:connector-curvature="0" />
    <path
       style="fill:none;fill-rule:evenodd;stroke:#000000;stroke-width:1.01574898px;stroke-linecap:butt;stroke-linejoin:miter;stroke-opacity:1"
       d="m 787.14286,672.36216 92.85714,0"
       id="path4895"
       inkscape:connector-curvature="0" />
    <path
       style="fill:none;fill-rule:evenodd;stroke:#000000;stroke-width:1.01389217px;stroke-linecap:butt;stroke-linejoin:miter;stroke-opacity:1"
       d="m 787.90047,543.79073 92.51795,0"
       id="path4897"
       inkscape:connector-curvature="0" />
    <path
       style="fill:none;fill-rule:evenodd;stroke:#000000;stroke-width:1.02353263px;stroke-linecap:butt;stroke-linejoin:miter;stroke-opacity:1"
       d="m 787.14286,870.93359 94.28571,0"
       id="path4899"
       inkscape:connector-curvature="0" />
    <path
       style="fill:none;fill-rule:evenodd;stroke:#000000;stroke-width:1.00790524px;stroke-linecap:butt;stroke-linejoin:miter;stroke-opacity:1"
       d="m 789.14286,799.50502 91.42857,0"
       id="path4901"
       inkscape:connector-curvature="0" />
    <path
       style="fill:none;fill-rule:evenodd;stroke:#000000;stroke-width:1.03279555px;stroke-linecap:butt;stroke-linejoin:miter;stroke-opacity:1"
       d="m 788.57143,938.07645 91.42857,0"
       id="path4903"
       inkscape:connector-curvature="0" />
    <flowRoot
       xml:space="preserve"
       id="flowRoot4905"
       style="font-style:normal;font-weight:normal;font-size:35px;line-height:125%;font-family:sans-serif;letter-spacing:0px;word-spacing:0px;fill:#000000;fill-opacity:1;stroke:none;stroke-width:1px;stroke-linecap:butt;stroke-linejoin:miter;stroke-opacity:1"
       transform="translate(20,332.36216)"><flowRegion
         id="flowRegion4907"><rect
           id="rect4909"
           width="75.714287"
           height="50"
           x="800"
           y="161.42857" /></flowRegion><flowPara
         id="flowPara4961">0</flowPara></flowRoot>    <flowRoot
       xml:space="preserve"
       id="flowRoot4905-1"
       style="font-style:normal;font-weight:normal;font-size:35px;line-height:125%;font-family:sans-serif;letter-spacing:0px;word-spacing:0px;fill:#000000;fill-opacity:1;stroke:none;stroke-width:1px;stroke-linecap:butt;stroke-linejoin:miter;stroke-opacity:1"
       transform="translate(21.44622,452.78868)"><flowRegion
         id="flowRegion4907-8"><rect
           id="rect4909-7"
           width="75.714287"
           height="50"
           x="800"
           y="161.42857" /></flowRegion><flowPara
         id="flowPara4911-9">2</flowPara></flowRoot>    <flowRoot
       xml:space="preserve"
       id="flowRoot4905-1-5"
       style="font-style:normal;font-weight:normal;font-size:35px;line-height:125%;font-family:sans-serif;letter-spacing:0px;word-spacing:0px;fill:#000000;fill-opacity:1;stroke:none;stroke-width:1px;stroke-linecap:butt;stroke-linejoin:miter;stroke-opacity:1"
       transform="translate(20.193081,515.60791)"><flowRegion
         id="flowRegion4907-8-9"><rect
           id="rect4909-7-2"
           width="75.714287"
           height="50"
           x="800"
           y="161.42857" /></flowRegion><flowPara
         id="flowPara4911-9-2">3</flowPara></flowRoot>    <flowRoot
       xml:space="preserve"
       id="flowRoot4905-1-8"
       style="font-style:normal;font-weight:normal;font-size:35px;line-height:125%;font-family:sans-serif;letter-spacing:0px;word-spacing:0px;fill:#000000;fill-opacity:1;stroke:none;stroke-width:1px;stroke-linecap:butt;stroke-linejoin:miter;stroke-opacity:1"
       transform="translate(20.193081,579.60791)"><flowRegion
         id="flowRegion4907-8-97"><rect
           id="rect4909-7-3"
           width="75.714287"
           height="50"
           x="800"
           y="161.42857" /></flowRegion><flowPara
         id="flowPara4911-9-6">4</flowPara></flowRoot>    <flowRoot
       xml:space="preserve"
       id="flowRoot4905-1-8-1"
       style="font-style:normal;font-weight:normal;font-size:35px;line-height:125%;font-family:sans-serif;letter-spacing:0px;word-spacing:0px;fill:#000000;fill-opacity:1;stroke:none;stroke-width:1px;stroke-linecap:butt;stroke-linejoin:miter;stroke-opacity:1"
       transform="translate(20.193081,649.60791)"><flowRegion
         id="flowRegion4907-8-97-2"><rect
           id="rect4909-7-3-9"
           width="75.714287"
           height="50"
           x="800"
           y="161.42857" /></flowRegion><flowPara
         id="flowPara4911-9-6-3">5</flowPara></flowRoot>    <flowRoot
       xml:space="preserve"
       id="flowRoot4905-1-8-1-1"
       style="font-style:normal;font-weight:normal;font-size:35px;line-height:125%;font-family:sans-serif;letter-spacing:0px;word-spacing:0px;fill:#000000;fill-opacity:1;stroke:none;stroke-width:1px;stroke-linecap:butt;stroke-linejoin:miter;stroke-opacity:1"
       transform="translate(21.621652,717.03649)"><flowRegion
         id="flowRegion4907-8-97-2-9"><rect
           id="rect4909-7-3-9-4"
           width="75.714287"
           height="50"
           x="800"
           y="161.42857" /></flowRegion><flowPara
         id="flowPara4911-9-6-3-7">6</flowPara></flowRoot>    <flowRoot
       xml:space="preserve"
       id="flowRoot4905-1-8-1-8"
       style="font-style:normal;font-weight:normal;font-size:35px;line-height:125%;font-family:sans-serif;letter-spacing:0px;word-spacing:0px;fill:#000000;fill-opacity:1;stroke:none;stroke-width:1px;stroke-linecap:butt;stroke-linejoin:miter;stroke-opacity:1"
       transform="translate(21.621652,787.03649)"><flowRegion
         id="flowRegion4907-8-97-2-4"><rect
           id="rect4909-7-3-9-5"
           width="75.714287"
           height="50"
           x="800"
           y="161.42857" /></flowRegion><flowPara
         id="flowPara4911-9-6-3-0">7</flowPara></flowRoot>    <path
       style="fill:none;fill-rule:evenodd;stroke:#000000;stroke-width:1.5;stroke-linecap:butt;stroke-linejoin:miter;stroke-opacity:1;stroke-miterlimit:4;stroke-dasharray:none;marker-end:url(#Arrow1Lend)"
       d="m 295.71429,530.93359 105.71428,0 L 620,835.2193 787.14286,832.36216"
       id="path5065"
       inkscape:connector-curvature="0" />
    <path
       style="fill:none;fill-rule:evenodd;stroke:#000000;stroke-width:1.6;stroke-linecap:butt;stroke-linejoin:miter;stroke-opacity:1;stroke-miterlimit:4;stroke-dasharray:19.2,1.6;marker-end:url(#marker5355);stroke-dashoffset:0"
       d="m 297.14286,645.2193 108.57143,0 227.14285,-77.14285 155.71429,4.28571"
       id="path5347"
       inkscape:connector-curvature="0" />
    <path
       style="fill:none;fill-rule:evenodd;stroke:#000000;stroke-width:1.5;stroke-linecap:butt;stroke-linejoin:miter;stroke-opacity:1;stroke-miterlimit:4;stroke-dasharray:18,1.5;stroke-dashoffset:0"
       d="m 297.14286,866.64787 101.42857,-2.85714 232.85714,-292.85714 154.28572,2.85714"
       id="path5383"
       inkscape:connector-curvature="0" />
    <path
       style="fill:none;fill-rule:evenodd;stroke:#000000;stroke-width:1.5;stroke-linecap:butt;stroke-linejoin:miter;stroke-opacity:1;stroke-miterlimit:4;stroke-dasharray:none;marker-end:url(#marker5411)"
       d="m 295.71429,755.2193 112.85714,-4.28571 202.85714,215.71428 175.71429,1.42858"
       id="path5403"
       inkscape:connector-curvature="0" />
    <path
       style="fill:none;fill-rule:evenodd;stroke:#000000;stroke-width:1.5;stroke-linecap:butt;stroke-linejoin:miter;stroke-opacity:1;marker-end:url(#marker5453);stroke-miterlimit:4;stroke-dasharray:none"
       d="m 297.14286,968.07645 107.14285,-1.42858 228.57143,-202.85714 155.71429,0"
       id="path5445"
       inkscape:connector-curvature="0" />
    <rect
       style="fill:#000000;fill-opacity:0.17000002;stroke:#000000;stroke-width:1.73931348;stroke-linejoin:miter;stroke-miterlimit:4;stroke-dasharray:none;stroke-dashoffset:0;stroke-opacity:1"
       id="rect5523-3"
       width="89.14669"
       height="68.33213"
       x="789.40564"
       y="730.33917" />
    <rect
       style="fill:#000000;fill-opacity:0.17000002;stroke:#000000;stroke-width:1.74645615;stroke-linejoin:miter;stroke-miterlimit:4;stroke-dasharray:none;stroke-dashoffset:0;stroke-opacity:1"
       id="rect5523-3-0"
       width="89.23954"
       height="68.822815"
       x="790.27991"
       y="800.84454" />
    <rect
       style="fill:#000000;fill-opacity:0.17000002;stroke:#000000;stroke-width:1.68399763;stroke-linejoin:miter;stroke-miterlimit:4;stroke-dasharray:none;stroke-dashoffset:0;stroke-opacity:1"
       id="rect5523-3-7"
       width="89.302002"
       height="63.943451"
       x="789.9635"
       y="938.32727" />
  </g>
</svg>
